0
SECTION
2
HEADER
9
$INSUNITS
70
4
9
$ACADVER
1
AC1014
9
$HANDSEED
5
FFFF
0
ENDSEC
0
SECTION
2
TABLES
0
TABLE
2
VPORT
5
8
100
AcDbSymbolTable
0
ENDTAB
0
TABLE
2
LTYPE
5
5
100
AcDbSymbolTable
0
LTYPE
5
14
100
AcDbSymbolTableRecord
100
AcDbLinetypeTableRecord
2
BYBLOCK
70
0
0
LTYPE
5
15
100
AcDbSymbolTableRecord
100
AcDbLinetypeTableRecord
2
BYLAYER
70
0
0
ENDTAB
0
TABLE
2
LAYER
5
2
100
AcDbSymbolTable
70
2
0
LAYER
5
50
100
AcDbSymbolTableRecord
100
AcDbLayerTableRecord
2
0
70
0
6
CONTINUOUS
0
ENDTAB
0
TABLE
2
STYLE
5
3
100
AcDbSymbolTable
70
1
0
STYLE
5
11
100
AcDbSymbolTableRecord
100
AcDbTextStyleTableRecord
2
STANDARD
70
0
0
ENDTAB
0
TABLE
2
VIEW
5
6
100
AcDbSymbolTable
70
0
0
ENDTAB
0
TABLE
2
UCS
5
7
100
AcDbSymbolTable
70
0
0
ENDTAB
0
TABLE
2
APPID
5
9
100
AcDbSymbolTable
70
2
0
APPID
5
12
100
AcDbSymbolTableRecord
100
AcDbRegAppTableRecord
2
ACAD
70
0
0
ENDTAB
0
TABLE
2
DIMSTYLE
5
A
100
AcDbSymbolTable
70
1
0
ENDTAB
0
TABLE
2
BLOCK_RECORD
5
1
100
AcDbSymbolTable
70
1
0
BLOCK_RECORD
5
1F
100
AcDbSymbolTableRecord
100
AcDbBlockTableRecord
2
*MODEL_SPACE
0
BLOCK_RECORD
5
1B
100
AcDbSymbolTableRecord
100
AcDbBlockTableRecord
2
*PAPER_SPACE
0
ENDTAB
0
ENDSEC
0
SECTION
2
BLOCKS
0
BLOCK
5
20
100
AcDbEntity
100
AcDbBlockBegin
2
*MODEL_SPACE
0
ENDBLK
5
21
100
AcDbEntity
100
AcDbBlockEnd
0
BLOCK
5
1C
100
AcDbEntity
100
AcDbBlockBegin
2
*PAPER_SPACE
0
ENDBLK
5
1D
100
AcDbEntity
100
AcDbBlockEnd
0
ENDSEC
0
SECTION
2
ENTITIES
0
LWPOLYLINE
5
100
100
AcDbEntity
8
0
100
AcDbPolyline
90
26
70
1
43
0.0
10
186.04982473680903
20
-53.999999999999851
42
0.41421356237309687
10
196.04982473680903
20
-43.999999999999801
10
196.049824736809
20
-28.99999999999984
10
188.14982473680899
20
-28.999999999999968
10
188.14982473680899
20
-3.9999999999999591
10
162.09985513821337
20
-3.999999999999968
10
162.09985513821269
20
4.0000000000000036
10
154.09985513821269
20
4.0000000000000036
10
154.09985513821226
20
-3.999999999999968
10
27.999986720100072
20
-4.0000000000000036
10
27.999986720100129
20
4.0000000000000036
10
19.999986720100125
20
4.0000000000000036
10
19.999986720100132
20
-3.9999999999999947
10
4.4408920985006262e-15
20
-3.9999999999999947
10
8.3266726846886741e-15
20
-49
42
0.41421356237309515
10
5.0000000000000098
20
-54
10
20.049986555661697
20
-54
10
20.049986555661697
20
-28.999999999999989
10
27.949986555661702
20
-28.999999999999989
10
27.949986555661695
20
-54
10
30.000000000000004
20
-53.999999999999993
42
0.41421356237309631
10
35.000000000000014
20
-48.999999999999993
42
-0.41421356237309398
10
40
20
-43.999999999999993
10
156.049824736809
20
-44
42
-0.41421356237308826
10
161.049824736809
20
-48.999999999999872
42
0.41421356237309553
10
166.04982473680906
20
-53.999999999999808
0
ENDSEC
0
SECTION
2
OBJECTS
0
DICTIONARY
5
C
100
AcDbDictionary
3
ACAD_GROUP
350
D
3
ACAD_MLINESTYLE
350
17
0
DICTIONARY
5
D
100
AcDbDictionary
0
DICTIONARY
5
1A
330
C
100
AcDbDictionary
0
DICTIONARY
5
17
100
AcDbDictionary
0
ENDSEC
0
EOF
